trabalho3/PC/signals.vcd
$date
	Sun Aug 25 18:08:32 2024
$end
$version
	Icarus Verilog
$end
$timescale
	1s
$end
$scope module tb_pc $end
$var wire 16 ! out_out [15:0] $end
$var reg 1 " in_clk $end
$var reg 16 # in_in [15:0] $end
$var reg 1 $ in_inc $end
$var reg 1 % in_load $end
$var reg 1 & in_reset $end
$scope module utt $end
$var wire 1 " clk $end
$var wire 16 ' in [15:0] $end
$var wire 1 $ inc $end
$var wire 1 % load $end
$var wire 1 & reset $end
$var reg 16 ( out [15:0] $end
$upscope $end
$scope begin $ivl_for_loop0 $end
$var integer 32 ) i [31:0] $end
$upscope $end
$upscope $end
$enddefinitions $end
$comment Show the parameter values. $end
$dumpall
$end
#0
$dumpvars
b0 )
b0 (
b11010100100100 '
0&
0%
0$
b11010100100100 #
0"
b0 !
$end
#2
b1 !
b1 (
1"
1$
b101111010000001 #
b101111010000001 '
#4
b1 )
0"
#6
b10 !
b10 (
1"
b101011001100011 #
b101011001100011 '
#8
b10 )
0"
#10
b11 !
b11 (
1"
b1001100110001101 #
b1001100110001101 '
#12
b11 )
0"
#14
b100 !
b100 (
1"
b101001000010010 #
b101001000010010 '
#16
b100 )
0"
#18
b1100110100001101 !
b1100110100001101 (
1"
1%
0$
b1100110100001101 #
b1100110100001101 '
#20
b101 )
0"
#22
b1100110100001110 !
b1100110100001110 (
1"
0%
1$
b1100110100111101 #
b1100110100111101 '
#24
b110 )
0"
#26
b1100110100001111 !
b1100110100001111 (
1"
b1111011110001100 #
b1111011110001100 '
#28
b111 )
0"
#30
b1100110100010000 !
b1100110100010000 (
1"
b10010011000110 #
b10010011000110 '
#32
b1000 )
0"
#34
b1100110100010001 !
b1100110100010001 (
1"
b1101001010101010 #
b1101001010101010 '
#36
b1001 )
0"
#38
b111001001110111 !
b111001001110111 (
1"
1%
0$
b111001001110111 #
b111001001110111 '
#40
b1010 )
0"
#42
b1101101110001111 !
b1101101110001111 (
1"
b1101101110001111 #
b1101101110001111 '
#44
b1011 )
0"
#46
b1001011011001110 !
b1001011011001110 (
1"
b1001011011001110 #
b1001011011001110 '
#48
b1100 )
0"
#50
b100111011000101 !
b100111011000101 (
1"
b100111011000101 #
b100111011000101 '
#52
b1101 )
0"
#54
b100111011000110 !
b100111011000110 (
1"
0%
1$
b10100010111101 #
b10100010111101 '
#56
b1110 )
0"
#58
b100111011000111 !
b100111011000111 (
1"
b10011001100101 #
b10011001100101 '
#60
b1111 )
0"
#62
b1000011100001010 !
b1000011100001010 (
1"
1%
0$
b1000011100001010 #
b1000011100001010 '
#64
b10000 )
0"
#66
b10000100100000 !
b10000100100000 (
1"
b10000100100000 #
b10000100100000 '
#68
b10001 )
0"
#70
b1100110010011101 !
b1100110010011101 (
1"
b1100110010011101 #
b1100110010011101 '
#72
b10010 )
0"
#74
b1100110010011110 !
b1100110010011110 (
1"
0%
1$
b1011100000010011 #
b1011100000010011 '
#76
b10011 )
0"
#78
b1100110010011111 !
b1100110010011111 (
1"
b1101011001010011 #
b1101011001010011 '
#80
b10100 )
0"
#82
b10101011010101 !
b10101011010101 (
1"
1%
0$
b10101011010101 #
b10101011010101 '
#84
b10101 )
0"
#86
b10101011010110 !
b10101011010110 (
1"
0%
1$
b11111010101110 #
b11111010101110 '
#88
b10110 )
0"
#90
b10101011010111 !
b10101011010111 (
1"
b111001011001111 #
b111001011001111 '
#92
b10111 )
0"
#94
b110010100001010 !
b110010100001010 (
1"
1%
0$
b110010100001010 #
b110010100001010 '
#96
b11000 )
0"
#98
b100110000111100 !
b100110000111100 (
1"
b100110000111100 #
b100110000111100 '
#100
b11001 )
0"
#102
b100110000111101 !
b100110000111101 (
1"
0%
1$
b110000110001010 #
b110000110001010 '
#104
b11010 )
0"
#106
b11010011011000 !
b11010011011000 (
1"
1%
0$
b11010011011000 #
b11010011011000 '
#108
b11011 )
0"
#110
b11010011011001 !
b11010011011001 (
1"
0%
1$
b1001010001001 #
b1001010001001 '
#112
b11100 )
0"
#114
b110010110110110 !
b110010110110110 (
1"
1%
0$
b110010110110110 #
b110010110110110 '
#116
b11101 )
0"
#118
b1001110101110 !
b1001110101110 (
1"
b1001110101110 #
b1001110101110 '
#120
b11110 )
0"
#122
b1001110101111 !
b1001110101111 (
1"
0%
1$
b1101110100101010 #
b1101110100101010 '
#124
b11111 )
0"
#126
b1001110110000 !
b1001110110000 (
1"
b1011111001110001 #
b1011111001110001 '
#128
b100000 )
0"
#130
b1001110110001 !
b1001110110001 (
1"
b101010101001111 #
b101010101001111 '
#132
b100001 )
0"
#134
b11001100111010 !
b11001100111010 (
1"
1%
0$
b11001100111010 #
b11001100111010 '
#136
b100010 )
0"
#138
b11001100111011 !
b11001100111011 (
1"
0%
1$
b100101100010101 #
b100101100010101 '
#140
b100011 )
0"
#142
b100101111011001 !
b100101111011001 (
1"
1%
0$
b100101111011001 #
b100101111011001 '
#144
b100100 )
0"
#146
b100101111011010 !
b100101111011010 (
1"
0%
1$
b1111101101001100 #
b1111101101001100 '
#148
b100101 )
0"
#150
b1010000110001111 !
b1010000110001111 (
1"
1%
0$
b1010000110001111 #
b1010000110001111 '
#152
b100110 )
0"
#154
b1010000110010000 !
b1010000110010000 (
1"
0%
1$
b110000010110111 #
b110000010110111 '
#156
b100111 )
0"
#158
b1010000110010001 !
b1010000110010001 (
1"
b1001010001011100 #
b1001010001011100 '
#160
b101000 )
0"
